<svg width="24" height="24" viewBox="0 0 24 24" fill="none" xmlns="http://www.w3.org/2000/svg">
<path fill-rule="evenodd" clip-rule="evenodd" d="M2 12.0008C2 14.7622 3.11929 17.2622 4.92893 19.0718L6.34314 17.6576C4.89543 16.2099 4 14.2099 4 12.0008C4 9.79162 4.89543 7.79162 6.34315 6.3439L4.92893 4.92969C3.11929 6.73933 2 9.23933 2 12.0008ZM22 12.0008C22 14.7622 20.8807 17.2622 19.0711 19.0718L17.6569 17.6576C19.1046 16.2099 20 14.2099 20 12.0008C20 9.79162 19.1046 7.79162 17.6569 6.3439L19.0711 4.92969C20.8807 6.73933 22 9.23933 22 12.0008ZM12 22.0008L11.9883 22.0007L12.0117 22.0007L12 22.0008ZM18 12.0008C18 13.6576 17.3284 15.1576 16.2426 16.2434L14.8284 14.8292C15.5523 14.1053 16 13.1053 16 12.0008C16 10.8962 15.5523 9.89619 14.8284 9.17233L16.2426 7.75811C17.3284 8.8439 18 10.3439 18 12.0008ZM8 12.0008C8 13.1053 8.44771 14.1053 9.17157 14.8292L7.75736 16.2434C6.67157 15.1576 6 13.6576 6 12.0008C6 10.3439 6.67157 8.8439 7.75736 7.75811L9.17157 9.17233C8.44771 9.89619 8 10.8962 8 12.0008ZM12 14.0007C13.1046 14.0007 14 13.1053 14 12.0007C14 10.8962 13.1046 10.0007 12 10.0007C10.8954 10.0007 10 10.8962 10 12.0007C10 13.1053 10.8954 14.0007 12 14.0007Z" fill="#818598"/>
</svg>
